%YAML 1.1
%TAG !u! tag:unity3d.com,2011:
--- !u!74 &7400000
AnimationClip:
  m_ObjectHideFlags: 0
  m_CorrespondingSourceObject: {fileID: 0}
  m_PrefabInstance: {fileID: 0}
  m_PrefabAsset: {fileID: 0}
  m_Name: WaterAnimation
  serializedVersion: 6
  m_Legacy: 0
  m_Compressed: 0
  m_UseHighQualityCurve: 1
  m_RotationCurves: []
  m_CompressedRotationCurves: []
  m_EulerCurves: []
  m_PositionCurves: []
  m_ScaleCurves: []
  m_FloatCurves: []
  m_PPtrCurves:
  - curve:
    - time: 0
      value: {fileID: 21300000, guid: 10012a9bfbc2b8340ab520b09fc37444, type: 3}
    - time: 0.16666667
      value: {fileID: 21300000, guid: ce116d74f600fe34eb00bac44c032907, type: 3}
    - time: 0.33333334
      value: {fileID: 21300000, guid: 4285d320397eb20448c8a8ad8ea7627c, type: 3}
    - time: 0.5
      value: {fileID: 21300000, guid: d0f1f86e61a49bb44a6c53b1a83ea549, type: 3}
    - time: 0.6666667
      value: {fileID: 21300000, guid: 056a9ddbcd407d44eac0600bfa23dfbc, type: 3}
    - time: 0.8333333
      value: {fileID: 21300000, guid: be2765da5b510694c865899c83618701, type: 3}
    - time: 1
      value: {fileID: 21300000, guid: bf96ffb43542d834e8c9a8a4fe4d5cef, type: 3}
    - time: 1.1666666
      value: {fileID: 21300000, guid: ab9ae05fe42d15d4885f20af7c36dfaf, type: 3}
    - time: 1.3333334
      value: {fileID: 21300000, guid: 24d0e29c8beb8d940b3e3b5fbd912da1, type: 3}
    - time: 1.5
      value: {fileID: 21300000, guid: 827e864f31996de4a93a4d7625dbc904, type: 3}
    attribute: m_Sprite
    path: 
    classID: 212
    script: {fileID: 0}
  m_SampleRate: 60
  m_WrapMode: 0
  m_Bounds:
    m_Center: {x: 0, y: 0, z: 0}
    m_Extent: {x: 0, y: 0, z: 0}
  m_ClipBindingConstant:
    genericBindings:
    - serializedVersion: 2
      path: 0
      attribute: 0
      script: {fileID: 0}
      typeID: 212
      customType: 23
      isPPtrCurve: 1
    pptrCurveMapping:
    - {fileID: 21300000, guid: 10012a9bfbc2b8340ab520b09fc37444, type: 3}
    - {fileID: 21300000, guid: ce116d74f600fe34eb00bac44c032907, type: 3}
    - {fileID: 21300000, guid: 4285d320397eb20448c8a8ad8ea7627c, type: 3}
    - {fileID: 21300000, guid: d0f1f86e61a49bb44a6c53b1a83ea549, type: 3}
    - {fileID: 21300000, guid: 056a9ddbcd407d44eac0600bfa23dfbc, type: 3}
    - {fileID: 21300000, guid: be2765da5b510694c865899c83618701, type: 3}
    - {fileID: 21300000, guid: bf96ffb43542d834e8c9a8a4fe4d5cef, type: 3}
    - {fileID: 21300000, guid: ab9ae05fe42d15d4885f20af7c36dfaf, type: 3}
    - {fileID: 21300000, guid: 24d0e29c8beb8d940b3e3b5fbd912da1, type: 3}
    - {fileID: 21300000, guid: 827e864f31996de4a93a4d7625dbc904, type: 3}
  m_AnimationClipSettings:
    serializedVersion: 2
    m_AdditiveReferencePoseClip: {fileID: 0}
    m_AdditiveReferencePoseTime: 0
    m_StartTime: 0
    m_StopTime: 1.5166667
    m_OrientationOffsetY: 0
    m_Level: 0
    m_CycleOffset: 0
    m_HasAdditiveReferencePose: 0
    m_LoopTime: 1
    m_LoopBlend: 0
    m_LoopBlendOrientation: 0
    m_LoopBlendPositionY: 0
    m_LoopBlendPositionXZ: 0
    m_KeepOriginalOrientation: 0
    m_KeepOriginalPositionY: 1
    m_KeepOriginalPositionXZ: 0
    m_HeightFromFeet: 0
    m_Mirror: 0
  m_EditorCurves: []
  m_EulerEditorCurves: []
  m_HasGenericRootTransform: 0
  m_HasMotionFloatCurves: 0
  m_Events: []
